<svg width="69" height="64" viewBox="0 0 69 64" fill="none" xmlns="http://www.w3.org/2000/svg">
<rect y="41" width="69" height="8" fill="#D74292"/>
<g clip-path="url(#clip0)">
<path d="M55.2175 15.5444L55.3674 15.412L55.2175 15.5444L66.1171 27.8778C66.3905 28.1872 66.4572 28.628 66.2876 29.0046C66.2235 29.1464 66.1303 29.2692 66.0169 29.3672L66.0045 29.3779L65.9941 29.3905L65.9876 29.3985L65.9873 29.399L35.7856 63.4467C35.5863 63.6714 35.3004 63.8 35.0001 63.8C34.6998 63.8 34.4139 63.6715 34.2146 63.4468L34.065 63.5795L34.2146 63.4468L4.0133 29.3993L4.01125 29.3967C4.00866 29.3934 4.00493 29.3888 4.0002 29.3836L3.99221 29.3749L3.98324 29.3671C3.86973 29.2691 3.7766 29.1465 3.71273 29.0047L3.71271 29.0047C3.54301 28.6281 3.6097 28.1872 3.88312 27.8778L14.7829 15.5444L14.7829 15.5444C14.9822 15.3189 15.2687 15.1897 15.5696 15.1897H54.4307C54.7317 15.1897 55.0182 15.3189 55.2175 15.5444ZM65.9848 29.4023C65.9846 29.4026 65.9853 29.4016 65.9865 29.4001L65.9855 29.4013L65.9848 29.4023ZM65.9928 29.3928L65.9909 29.3949C65.9915 29.3942 65.9921 29.3935 65.9928 29.3928ZM52.3842 17.595L52.5737 17.2896H52.2142H37.7566H37.2758L37.6148 17.6306L46.5173 26.5861L46.6957 26.7656L46.8291 26.5505L52.3842 17.595ZM44.0069 27.5231H44.4877L44.1487 27.1821L35.142 18.1217L35.0001 17.9791L34.8583 18.1217L25.8515 27.1821L25.5125 27.5231H25.9934H44.0069ZM32.3855 17.6307L32.7244 17.2897H32.2436H17.786H17.4266L17.616 17.5952L23.1712 26.5507L23.3046 26.7657L23.483 26.5862L32.3855 17.6307ZM15.5456 18.2413L15.4038 18.0128L15.2258 18.2143L7.29288 27.1907L6.99909 27.5231H7.44275H20.9437H21.3032L21.1137 27.2177L15.5456 18.2413ZM7.46375 29.6231H7.019L7.31413 29.9558L32.2909 58.1135L32.6285 57.9126L22.424 29.755L22.3762 29.6231H22.236H7.46375ZM37.4185 57.8592L37.7557 58.0612L62.6861 29.9558L62.9812 29.6231H62.5365H24.8951H24.6099L24.7071 29.8913L34.8235 57.8058L35.0097 58.3196L35.1991 57.8069L42.5785 37.8348L42.5785 37.8348C42.7794 37.2908 43.383 37.0126 43.9273 37.2138L43.9966 37.0262L43.9273 37.2138C44.4712 37.4148 44.7492 38.0187 44.5483 38.5627L37.4185 57.8592ZM48.8865 27.2177L48.6971 27.5231H49.0565H62.5575H63.0012L62.7074 27.1907L54.7745 18.2143L54.5964 18.0128L54.4547 18.2413L48.8865 27.2177Z" fill="black" stroke="white" stroke-width="0.4"/>
<path d="M33.95 1.25C33.95 0.670095 34.4202 0.2 35 0.2C35.5798 0.2 36.05 0.670095 36.05 1.25V7.68913C36.05 8.26903 35.5798 8.73913 35 8.73913C34.4202 8.73913 33.95 8.26903 33.95 7.68913V1.25Z" fill="black" stroke="white" stroke-width="0.4"/>
<path d="M44.756 5.08179C44.756 5.08177 44.756 5.08175 44.7561 5.08174C45.1665 4.67167 45.8311 4.67176 46.2411 5.08173C46.6511 5.49175 46.6511 6.15662 46.2411 6.56664L41.6879 11.1197C41.6879 11.1197 41.6879 11.1198 41.6879 11.1198C41.4827 11.3248 41.2143 11.4273 40.9454 11.4273C40.6764 11.4273 40.4081 11.3249 40.2028 11.1198C39.7928 10.7097 39.7928 10.0449 40.2028 9.63486L44.756 5.08179Z" fill="black" stroke="white" stroke-width="0.4"/>
<path d="M25.0004 5.08173L25.0003 5.08172C24.5905 4.67179 23.9259 4.67164 23.5153 5.08173C23.5153 5.08176 23.5153 5.08178 23.5153 5.08181M25.0004 5.08173L23.5153 5.08181M25.0004 5.08173L29.5535 9.63486M25.0004 5.08173L29.5535 9.63486M23.5153 5.08181C23.1053 5.49183 23.1053 6.15664 23.5153 6.56664M23.5153 5.08181L23.5153 6.56664M23.5153 6.56664C23.5153 6.56664 23.5153 6.56664 23.5153 6.56664L28.0686 11.1198L27.9272 11.2612L28.0686 11.1198C28.2737 11.3249 28.542 11.4273 28.811 11.4273C29.08 11.4273 29.3483 11.3248 29.5535 11.1198L23.5153 6.56664ZM29.5535 9.63486C29.9635 10.0449 29.9635 10.7097 29.5535 11.1197L29.5535 9.63486Z" fill="black" stroke="white" stroke-width="0.4"/>
<path d="M46.2297 33.5454C46.2297 34.1253 45.7596 34.5954 45.1797 34.5954C44.5998 34.5954 44.1297 34.1253 44.1297 33.5454C44.1297 32.9655 44.5998 32.4954 45.1797 32.4954C45.7596 32.4954 46.2297 32.9655 46.2297 33.5454Z" fill="black" stroke="white" stroke-width="0.4"/>
</g>
<defs>
<clipPath id="clip0">
<rect x="3" width="64" height="64" fill="white"/>
</clipPath>
</defs>
</svg>
