<svg width="16" height="16" viewBox="0 0 16 16" fill="none" xmlns="http://www.w3.org/2000/svg">
<g clip-path="url(#clip0)">
<path d="M15.6413 12.6452L13.1703 10.1739C12.6782 9.68375 11.8631 9.69864 11.3538 10.2081L10.109 11.4527C10.0303 11.4094 9.94889 11.3641 9.8633 11.3161C9.07718 10.8805 8.00123 10.2835 6.86902 9.15044C5.73346 8.01501 5.13589 6.93741 4.69898 6.15078C4.65287 6.06744 4.6087 5.98709 4.56507 5.91079L5.40057 5.07653L5.81133 4.66527C6.32142 4.15504 6.33549 3.34023 5.84447 2.84861L3.37352 0.377115C2.8825 -0.113811 2.0671 -0.0989177 1.557 0.411314L0.860607 1.11171L0.879637 1.1306C0.646126 1.42856 0.450997 1.77221 0.305787 2.14279C0.171932 2.49554 0.0885941 2.83216 0.0504876 3.16946C-0.275785 5.87434 0.960263 8.34639 4.31474 11.7009C8.95164 16.3375 12.6884 15.9872 12.8496 15.9701C13.2007 15.9282 13.5372 15.8443 13.8791 15.7115C14.2465 15.568 14.5899 15.3731 14.8877 15.1401L14.9029 15.1536L15.6084 14.4628C16.1174 13.9526 16.1321 13.1376 15.6413 12.6452Z" fill="#2A2625"/>
</g>
<defs>
<clipPath id="clip0">
<rect width="16" height="16" fill="white"/>
</clipPath>
</defs>
</svg>
